Autotest 1: Creation of Queue
	5/5
Autotest 2: Adding an element
	5/5
Autotest 3: Adding two elements
	0/5
Autotest 4: has_next - empty
	3/3
Autotest 5: has_next - non-empty
	3/3
Autotest 6: has_next - after-pop
	3/3
================================================================================
Gesamt: 19/24
